@startuml

title __MODEL's Class Diagram__\n

  namespace fr.cnam.foad.nfa035.badges.wallet.model {
    class fr.cnam.foad.nfa035.badges.wallet.model.DigitalBadge {
        - badge : File
        - begin : Date
        - end : Date
        - serial : String
        + DigitalBadge()
        + DigitalBadge()
        + DigitalBadge()
        + compareTo()
        + equals()
        + getBadge()
        + getBegin()
        + getEnd()
        + getMetadata()
        + getSerial()
        + hashCode()
        + setBadge()
        + setBegin()
        + setEnd()
        + setMetadata()
        + setSerial()
        + toString()
    }
  }
  

  namespace fr.cnam.foad.nfa035.badges.wallet.model {
    class fr.cnam.foad.nfa035.badges.wallet.model.DigitalBadgeMetadata {
        - badgeId : int
        - imageSize : long
        - imageType : String
        - walletPosition : long
        + DigitalBadgeMetadata()
        + DigitalBadgeMetadata()
        + DigitalBadgeMetadata()
        + compareTo()
        + equals()
        + getBadgeId()
        + getImageSize()
        + getImageType()
        + getWalletPosition()
        + hashCode()
        + setBadgeId()
        + setImageSize()
        + setImageType()
        + setWalletPosition()
        + toString()
    }
  }
  

  fr.cnam.foad.nfa035.badges.wallet.model.DigitalBadge .up.|> java.lang.Comparable
  fr.cnam.foad.nfa035.badges.wallet.model.DigitalBadge o-- fr.cnam.foad.nfa035.badges.wallet.model.DigitalBadgeMetadata : metadata
  fr.cnam.foad.nfa035.badges.wallet.model.DigitalBadgeMetadata .up.|> java.lang.Comparable


right footer


PlantUML diagram generated by SketchIt! (https://bitbucket.org/pmesmeur/sketch.it)
For more information about this tool, please contact philippe.mesmeur@gmail.com
endfooter

@enduml
