@startuml

title __JSON Serialization BONUS's Class Diagram__\n

  namespace fr.cnam.foad.nfa035.badges.wallet.dao {
    namespace impl.json {
        interface fr.cnam.foad.nfa035.badges.wallet.dao.impl.json.JSONBadgeWalletDAO {
            {abstract} + getBadgeFromMetadata(OutputStream imageStream, DigitalBadgeMetadata meta)
            {abstract} + getWalletMetadataMap()
        }
    }
  }


  namespace fr.cnam.foad.nfa035.badges.wallet.dao {
    namespace impl.json {
        class fr.cnam.foad.nfa035.badges.wallet.dao.impl.json.JSONBadgeWalletDAOImpl {
            {static} - LOG : Logger
            - walletDatabase : File
            + JSONBadgeWalletDAOImpl(...)
            + addBadge(...)
            + addBadge(...)
            + getBadge(...)
            + getBadgeFromMetadata(OutputStream imageStream, DigitalBadge meta)
            + getBadgeFromMetadata(OutputStream imageStream, DigitalBadgeMetadata meta)
            + getWalletMetadata()
            + getWalletMetadataMap()
            - getWalletMetadata(String mode)
        }
    }
  }


  fr.cnam.foad.nfa035.badges.wallet.dao.impl.json.JSONBadgeWalletDAOImpl .up.|> fr.cnam.foad.nfa035.badges.wallet.dao.impl.json.JSONBadgeWalletDAO

  namespace fr.cnam.foad.nfa035.badges.wallet.dao {
    interface fr.cnam.foad.nfa035.badges.wallet.dao.DirectAccessBadgeWalletDAO {
        {abstract} + addBadge(...)
        {abstract} + getBadgeFromMetadata(OutputStream imageStream, DigitalBadge meta)
        {abstract} + getWalletMetadata()
    }
  }

  fr.cnam.foad.nfa035.badges.wallet.dao.impl.json.JSONBadgeWalletDAO .up.|> fr.cnam.foad.nfa035.badges.wallet.dao.DirectAccessBadgeWalletDAO


  namespace fr.cnam.foad.nfa035.badges.fileutils.streaming.serializer {
    namespace impl.db.json {
          interface fr.cnam.foad.nfa035.badges.fileutils.streaming.serializer.impl.db.json.JSONWalletBonusDeserializer {
             {abstract}  + deserialize(WalletFrameMedia media, DigitalBadgeMetadata metas)
             {abstract}  + deserialize(WalletFrameMedia media, long pos)
          }
    }
  }
  

  namespace fr.cnam.foad.nfa035.badges.fileutils.streaming.serializer {
    namespace impl.db.json {
      class fr.cnam.foad.nfa035.badges.fileutils.streaming.serializer.impl.db.json.JSONWalletDeserializerDAImpl {
          ~ metas : Set<DigitalBadge>
          {static} - LOG : Logger
          - sourceOutputStream : OutputStream
          + JSONWalletDeserializerDAImpl(...)
          + deserialize(WalletFrameMedia media, DigitalBadge targetBadge)
          + deserialize(WalletFrameMedia media, DigitalBadgeMetadata metas)
          + deserialize(WalletFrameMedia media, long pos)
          + getDeserializingStream()
          + getSourceOutputStream()
          + setSourceOutputStream(...)
          - refreshBadgeMetadata(DigitalBadge originBadge, DigitalBadge targetBadge)
      }
    }
  }


  fr.cnam.foad.nfa035.badges.fileutils.streaming.serializer.impl.db.json.JSONWalletDeserializerDAImpl .up..|> fr.cnam.foad.nfa035.badges.fileutils.streaming.serializer.impl.db.json.JSONWalletBonusDeserializer



@enduml
